<?xml version="1.0" encoding="UTF-8" standalone="no"?>
<svg width="37px" height="35px" viewBox="0 0 37 35" version="1.1" xmlns="http://www.w3.org/2000/svg" xmlns:xlink="http://www.w3.org/1999/xlink">
    <!-- Generator: Sketch 40 (33762) - http://www.bohemiancoding.com/sketch -->
    <title>Star</title>
    <desc>Created with Sketch.</desc>
    <defs></defs>
    <g id="Page-1" stroke="none" stroke-width="1" fill="none" fill-rule="evenodd">
        <g id="Screen-Large" transform="translate(-190.000000, -409.000000)" fill="#F6C623">
            <g id="Box-Feedback" transform="translate(170.000000, 296.000000)">
                <polygon id="Star" points="38.9054544 141.38948 27.7808427 147.238035 29.9054544 134.850597 20.9054544 126.077766 33.3431485 124.270463 38.9054544 113 44.4677603 124.270463 56.9054544 126.077766 47.9054544 134.850597 50.0300662 147.238035"></polygon>
            </g>
        </g>
    </g>
</svg>